<?xml version="1.0" encoding="UTF-8"?>
<svg width="56px" height="48px" viewBox="0 0 56 48" version="1.1" xmlns="http://www.w3.org/2000/svg" xmlns:xlink="http://www.w3.org/1999/xlink">
    <!-- Generator: sketchtool 55.2 (78181) - https://sketchapp.com -->
    <title>F91739E1-1D8D-448F-A509-BDB83D933C8A</title>
    <desc>Created with sketchtool.</desc>
    <g id="Desk-[ok]" stroke="none" stroke-width="1" fill="none" fill-rule="evenodd" font-family="FontAwesome" font-size="60" font-weight="normal" line-spacing="60">
        <g id="layout---ebook-1" transform="translate(-360.000000, -2282.000000)" fill="#E6E6E6">
            <g id="Group-13-Copy" transform="translate(0.000000, 2111.000000)">
                <g id="depoimento" transform="translate(375.000000, 183.000000)">
                    <text id="Aspa">
                        <tspan x="-15" y="36"></tspan>
                    </text>
                </g>
            </g>
        </g>
    </g>
</svg>