<?xml version="1.0" encoding="UTF-8"?>
<svg width="197px" height="16px" viewBox="0 0 197 16" version="1.1" xmlns="http://www.w3.org/2000/svg" xmlns:xlink="http://www.w3.org/1999/xlink">
    <!-- Generator: sketchtool 55.2 (78181) - https://sketchapp.com -->
    <title>7163CB71-1DAC-4E93-ABF2-000EB00B60D3</title>
    <desc>Created with sketchtool.</desc>
    <g id="Desk-[ok]" stroke="none" stroke-width="1" fill="none" fill-rule="evenodd">
        <g id="layout---ebook-1" transform="translate(-861.000000, -32.000000)" fill="#BBBBBB" fill-rule="nonzero">
            <g id="logo-cabecalho" transform="translate(861.000000, 32.000000)">
                <path d="M0.69,15 L0.69,0.9 L4.37,0.9 L4.37,12.02 L10.37,12.02 L10.37,15 L0.69,15 Z M18.83,15.18 C17.3899928,15.18 16.1400053,14.8833363 15.08,14.29 C14.0199947,13.6966637 13.2033362,12.8566721 12.63,11.77 C12.0566638,10.6833279 11.77,9.406674 11.77,7.94 C11.77,6.473326 12.0566638,5.1966721 12.63,4.11 C13.2033362,3.0233279 14.0199947,2.1866696 15.08,1.6 C16.1400053,1.0133304 17.3899928,0.72 18.83,0.72 C20.27,0.72 21.5199947,1.0133304 22.58,1.6 C23.6400053,2.1866696 24.4533305,3.0233279 25.02,4.11 C25.5866695,5.1966721 25.87,6.473326 25.87,7.94 C25.87,9.406674 25.5833362,10.6833279 25.01,11.77 C24.4366638,12.8566721 23.6200053,13.6966637 22.56,14.29 C21.4999947,14.8833363 20.2566738,15.18 18.83,15.18 Z M18.83,12.36 C19.896672,12.36 20.729997,11.9833371 21.33,11.23 C21.93,10.4766629 22.23,9.3800072 22.23,7.94 C22.23,6.4999928 21.9266697,5.4066704 21.32,4.66 C20.7133303,3.9133296 19.8833386,3.54 18.83,3.54 C17.763328,3.54 16.93,3.9099963 16.33,4.65 C15.729997,5.3900037 15.43,6.4866594 15.43,7.94 C15.43,9.3933406 15.729997,10.4933296 16.33,11.24 C16.93,11.9866704 17.763328,12.36 18.83,12.36 Z M40.53,7.04 L40.53,14.1 C39.796663,14.4466684 38.963338,14.7133324 38.03,14.9 C37.096662,15.0866676 36.1433382,15.18 35.17,15.18 C33.636659,15.18 32.3066723,14.8900029 31.18,14.31 C30.0533277,13.7299971 29.19,12.8966721 28.59,11.81 C27.989997,10.7233279 27.69,9.4333408 27.69,7.94 C27.69,6.4866594 27.989997,5.2133388 28.59,4.12 C29.19,3.0266612 30.0399945,2.1866696 31.14,1.6 C32.2400055,1.0133304 33.5299926,0.72 35.01,0.72 C36.0366718,0.72 36.9999955,0.853332 37.9,1.12 C38.8000045,1.386668 39.5299972,1.753331 40.09,2.22 L38.95,4.82 C38.2966634,4.3933312 37.670003,4.0866676 37.07,3.9 C36.469997,3.7133324 35.8300034,3.62 35.15,3.62 C33.883327,3.62 32.9400031,3.9733298 32.32,4.68 C31.6999969,5.3866702 31.39,6.473326 31.39,7.94 C31.39,9.4466742 31.7133301,10.5633297 32.36,11.29 C33.0066699,12.0166703 33.99666,12.38 35.33,12.38 C35.9700032,12.38 36.6033302,12.313334 37.23,12.18 L37.23,9.56 L34.75,9.56 L34.75,7.04 L40.53,7.04 Z M49.63,15.18 C48.1899928,15.18 46.9400053,14.8833363 45.88,14.29 C44.8199947,13.6966637 44.0033362,12.8566721 43.43,11.77 C42.8566638,10.6833279 42.57,9.406674 42.57,7.94 C42.57,6.473326 42.8566638,5.1966721 43.43,4.11 C44.0033362,3.0233279 44.8199947,2.1866696 45.88,1.6 C46.9400053,1.0133304 48.1899928,0.72 49.63,0.72 C51.07,0.72 52.3199947,1.0133304 53.38,1.6 C54.4400053,2.1866696 55.2533305,3.0233279 55.82,4.11 C56.3866695,5.1966721 56.67,6.473326 56.67,7.94 C56.67,9.406674 56.3833362,10.6833279 55.81,11.77 C55.2366638,12.8566721 54.4200053,13.6966637 53.36,14.29 C52.2999947,14.8833363 51.0566738,15.18 49.63,15.18 Z M49.63,12.36 C50.696672,12.36 51.529997,11.9833371 52.13,11.23 C52.73,10.4766629 53.03,9.3800072 53.03,7.94 C53.03,6.4999928 52.7266697,5.4066704 52.12,4.66 C51.5133303,3.9133296 50.6833386,3.54 49.63,3.54 C48.563328,3.54 47.73,3.9099963 47.13,4.65 C46.529997,5.3900037 46.23,6.4866594 46.23,7.94 C46.23,9.3933406 46.529997,10.4933296 47.13,11.24 C47.73,11.9866704 48.563328,12.36 49.63,12.36 Z M64.57,0.9 L70.31,0.9 C71.8700078,0.9 73.2133277,1.1799972 74.34,1.74 C75.4666723,2.3000028 76.329997,3.1099947 76.93,4.17 C77.530003,5.2300053 77.83,6.4866594 77.83,7.94 C77.83,9.406674 77.5333363,10.6699947 76.94,11.73 C76.3466637,12.7900053 75.4866723,13.5999972 74.36,14.16 C73.2333277,14.7200028 71.8833412,15 70.31,15 L64.57,15 L64.57,0.9 Z M70.05,12.04 C71.4366736,12.04 72.4699966,11.7000034 73.15,11.02 C73.8300034,10.3399966 74.17,9.3133402 74.17,7.94 C74.17,6.5666598 73.8300034,5.5433367 73.15,4.87 C72.4699966,4.1966633 71.4366736,3.86 70.05,3.86 L68.25,3.86 L68.25,12.04 L70.05,12.04 Z M90.77,15 L89.51,12.08 L83.27,12.08 L82.01,15 L78.31,15 L84.89,0.9 L87.81,0.9 L94.41,15 L90.77,15 Z M84.45,9.32 L88.33,9.32 L86.39,4.8 L84.45,9.32 Z M100.97,15 L100.97,0.9 L110.99,0.9 L110.99,3.74 L104.55,3.74 L104.55,6.42 L110.59,6.42 L110.59,9.24 L104.55,9.24 L104.55,12.16 L110.99,12.16 L110.99,15 L100.97,15 Z M124.31,0.9 L127.15,0.9 L127.15,15 L123.95,15 L123.95,7.6 L121.23,12.66 L118.87,12.66 L116.17,7.72 L116.15,15 L112.95,15 L112.95,0.9 L115.85,0.9 L120.09,8.92 L124.31,0.9 Z M129.75,0.9 L136.57,0.9 C138.130008,0.9 139.343329,1.2966627 140.21,2.09 C141.076671,2.8833373 141.51,3.9866596 141.51,5.4 C141.51,6.800007 141.073338,7.9 140.2,8.7 C139.326662,9.500004 138.116674,9.9 136.57,9.9 L133.43,9.9 L133.43,15 L129.75,15 L129.75,0.9 Z M136.07,7.14 C136.750003,7.14 137.253332,7.0000014 137.58,6.72 C137.906668,6.4399986 138.07,6.0066696 138.07,5.42 C138.07,4.8333304 137.906668,4.3966681 137.58,4.11 C137.253332,3.8233319 136.750003,3.68 136.07,3.68 L133.43,3.68 L133.43,7.14 L136.07,7.14 Z M155.97,15 L151.93,15 L149.49,10.5 C149.183332,9.9799974 148.69667,9.72 148.03,9.72 L146.91,9.72 L146.91,15 L143.29,15 L143.29,0.9 L150.01,0.9 C151.716675,0.9 152.999996,1.2699963 153.86,2.01 C154.720004,2.7500037 155.15,3.819993 155.15,5.22 C155.15,6.286672 154.85667,7.1899963 154.27,7.93 C153.68333,8.6700037 152.856672,9.1666654 151.79,9.42 C152.603337,9.5933342 153.249998,10.1199956 153.73,11 L155.97,15 Z M149.43,6.96 C150.243337,6.96 150.826665,6.8333346 151.18,6.58 C151.533335,6.3266654 151.71,5.9133362 151.71,5.34 C151.71,4.7533304 151.533335,4.3300013 151.18,4.07 C150.826665,3.8099987 150.243337,3.68 149.43,3.68 L146.87,3.68 L146.87,6.96 L149.43,6.96 Z M157.43,15 L157.43,0.9 L167.45,0.9 L167.45,3.74 L161.01,3.74 L161.01,6.42 L167.05,6.42 L167.05,9.24 L161.01,9.24 L161.01,12.16 L167.45,12.16 L167.45,15 L157.43,15 Z M174.47,15.18 C173.416661,15.18 172.376672,15.0400014 171.35,14.76 C170.323328,14.4799986 169.490003,14.106669 168.85,13.64 L169.99,11.04 C170.670003,11.4666688 171.396663,11.7933322 172.17,12.02 C172.943337,12.2466678 173.723329,12.36 174.51,12.36 C175.310004,12.36 175.919998,12.2500011 176.34,12.03 C176.760002,11.8099989 176.97,11.500002 176.97,11.1 C176.97,10.7399982 176.780002,10.4466678 176.4,10.22 C176.019998,9.9933322 175.296672,9.7666678 174.23,9.54 C172.909993,9.2599986 171.87667,8.9266686 171.13,8.54 C170.38333,8.1533314 169.860001,7.7000026 169.56,7.18 C169.259998,6.6599974 169.11,6.0200038 169.11,5.26 C169.11,4.393329 169.353331,3.6166701 169.84,2.93 C170.326669,2.2433299 171.013329,1.7033353 171.9,1.31 C172.786671,0.9166647 173.803328,0.72 174.95,0.72 C175.963338,0.72 176.946662,0.8633319 177.9,1.15 C178.853338,1.4366681 179.596664,1.8066644 180.13,2.26 L179.01,4.86 C177.729994,3.9799956 176.38334,3.54 174.97,3.54 C174.289997,3.54 173.743335,3.6699987 173.33,3.93 C172.916665,4.1900013 172.71,4.5333312 172.71,4.96 C172.71,5.2133346 172.783333,5.4199992 172.93,5.58 C173.076667,5.7400008 173.35,5.8966659 173.75,6.05 C174.150002,6.2033341 174.743329,6.3599992 175.53,6.52 C176.810006,6.8000014 177.816663,7.1366647 178.55,7.53 C179.283337,7.9233353 179.803332,8.3799974 180.11,8.9 C180.416668,9.4200026 180.57,10.0399964 180.57,10.76 C180.57,12.1466736 180.036672,13.2299961 178.97,14.01 C177.903328,14.7900039 176.403343,15.18 174.47,15.18 Z M193.39,15 L192.13,12.08 L185.89,12.08 L184.63,15 L180.93,15 L187.51,0.9 L190.43,0.9 L197.03,15 L193.39,15 Z M187.07,9.32 L190.95,9.32 L189.01,4.8 L187.07,9.32 Z" id="LOGODAEMPRESA"></path>
            </g>
        </g>
    </g>
</svg>